Final-Exam/Question1/Multiplier_8_8_Pipeline/modelsim_sim_results.vcd
$date
   Sat Jan 22 13:43:24 2022
$end
$version
  P.20131013
$end
$timescale
  1ps
$end
$scope module mult_sgn_break_pipe2_16x16 $end
$var wire 1 ! i_clk $end
$var wire 1 " i_rstb $end
$var wire 1 * i_ma [7] $end
$var wire 1 ) i_ma [6] $end
$var wire 1 ( i_ma [5] $end
$var wire 1 ' i_ma [4] $end
$var wire 1 & i_ma [3] $end
$var wire 1 % i_ma [2] $end
$var wire 1 $ i_ma [1] $end
$var wire 1 # i_ma [0] $end
$var wire 1 2 i_mb [7] $end
$var wire 1 1 i_mb [6] $end
$var wire 1 0 i_mb [5] $end
$var wire 1 / i_mb [4] $end
$var wire 1 . i_mb [3] $end
$var wire 1 - i_mb [2] $end
$var wire 1 , i_mb [1] $end
$var wire 1 + i_mb [0] $end
$var wire 1 B o_m [15] $end
$var wire 1 A o_m [14] $end
$var wire 1 @ o_m [13] $end
$var wire 1 ? o_m [12] $end
$var wire 1 > o_m [11] $end
$var wire 1 = o_m [10] $end
$var wire 1 < o_m [9] $end
$var wire 1 ; o_m [8] $end
$var wire 1 : o_m [7] $end
$var wire 1 9 o_m [6] $end
$var wire 1 8 o_m [5] $end
$var wire 1 7 o_m [4] $end
$var wire 1 6 o_m [3] $end
$var wire 1 5 o_m [2] $end
$var wire 1 4 o_m [1] $end
$var wire 1 3 o_m [0] $end
$var wire 1 .! r_p1 [9] $end
$var wire 1 -! r_p1 [8] $end
$var wire 1 ,! r_p1 [7] $end
$var wire 1 +! r_p1 [6] $end
$var wire 1 *! r_p1 [5] $end
$var wire 1 )! r_p1 [4] $end
$var wire 1 (! r_p1 [3] $end
$var wire 1 '! r_p1 [2] $end
$var wire 1 &! r_p1 [1] $end
$var wire 1 %! r_p1 [0] $end
$var wire 1 7! r_p2 [8] $end
$var wire 1 6! r_p2 [7] $end
$var wire 1 5! r_p2 [6] $end
$var wire 1 4! r_p2 [5] $end
$var wire 1 3! r_p2 [4] $end
$var wire 1 2! r_p2 [3] $end
$var wire 1 1! r_p2 [2] $end
$var wire 1 0! r_p2 [1] $end
$var wire 1 /! r_p2 [0] $end
$var wire 1 @! r_p3 [8] $end
$var wire 1 ?! r_p3 [7] $end
$var wire 1 >! r_p3 [6] $end
$var wire 1 =! r_p3 [5] $end
$var wire 1 <! r_p3 [4] $end
$var wire 1 ;! r_p3 [3] $end
$var wire 1 :! r_p3 [2] $end
$var wire 1 9! r_p3 [1] $end
$var wire 1 8! r_p3 [0] $end
$var wire 1 H! r_p4 [7] $end
$var wire 1 G! r_p4 [6] $end
$var wire 1 F! r_p4 [5] $end
$var wire 1 E! r_p4 [4] $end
$var wire 1 D! r_p4 [3] $end
$var wire 1 C! r_p4 [2] $end
$var wire 1 B! r_p4 [1] $end
$var wire 1 A! r_p4 [0] $end
$var wire 1 R! r_m1 [9] $end
$var wire 1 Q! r_m1 [8] $end
$var wire 1 P! r_m1 [7] $end
$var wire 1 O! r_m1 [6] $end
$var wire 1 N! r_m1 [5] $end
$var wire 1 M! r_m1 [4] $end
$var wire 1 L! r_m1 [3] $end
$var wire 1 K! r_m1 [2] $end
$var wire 1 J! r_m1 [1] $end
$var wire 1 I! r_m1 [0] $end
$var wire 1 [! r_m2 [8] $end
$var wire 1 Z! r_m2 [7] $end
$var wire 1 Y! r_m2 [6] $end
$var wire 1 X! r_m2 [5] $end
$var wire 1 W! r_m2 [4] $end
$var wire 1 V! r_m2 [3] $end
$var wire 1 U! r_m2 [2] $end
$var wire 1 T! r_m2 [1] $end
$var wire 1 S! r_m2 [0] $end
$var wire 1 d! r_m3 [8] $end
$var wire 1 c! r_m3 [7] $end
$var wire 1 b! r_m3 [6] $end
$var wire 1 a! r_m3 [5] $end
$var wire 1 `! r_m3 [4] $end
$var wire 1 _! r_m3 [3] $end
$var wire 1 ^! r_m3 [2] $end
$var wire 1 ]! r_m3 [1] $end
$var wire 1 \! r_m3 [0] $end
$var wire 1 l! r_m4 [7] $end
$var wire 1 k! r_m4 [6] $end
$var wire 1 j! r_m4 [5] $end
$var wire 1 i! r_m4 [4] $end
$var wire 1 h! r_m4 [3] $end
$var wire 1 g! r_m4 [2] $end
$var wire 1 f! r_m4 [1] $end
$var wire 1 e! r_m4 [0] $end
$var wire 1 "" p_m3 [3] $end
$var wire 1 !" p_m3 [2] $end
$var wire 1 ~! p_m3 [1] $end
$var wire 1 }! p_m3 [0] $end
$upscope $end
$enddefinitions $end
#0
$dumpvars
x)!
x.!
x-!
x,!
x+!
x*!
x8!
x0!
x>!
x4!
xC!
x5!
xB!
x(!
x7!
x2!
xH!
x;!
xD!
x1!
x:!
xF!
xA!
xR!
x?!
x6!
x9!
xE!
x@!
xQ!
xG!
xP!
x3!
xO!
xN!
x&!
xM!
x%!
x=!
x<!
x/!
x'!
xL!
xW!
xV!
x\!
xX!
xc!
xT!
xj!
xb!
x[!
xi!
xg!
xa!
xI!
xU!
xY!
xd!
xZ!
xS!
x`!
xK!
x]!
xl!
xk!
xh!
xe!
x_!
xJ!
xf!
x^!
1)
0$
1"
02
1'
1/
0-
1!
x""
x}!
1(
1&
1+
xB
x!"
0#
x@
01
xA
0,
1.
x?
0*
00
x~!
0%
x<
x7
x3
x8
x=
x4
x:
x5
x;
x6
x>
x9
$end
#50
0!
#100
x)!
x.!
x-!
x,!
x+!
x*!
x8!
x0!
x>!
x4!
xC!
x5!
xB!
x(!
x7!
x2!
xH!
x;!
xD!
x1!
x:!
xF!
xA!
x?!
x6!
x9!
xE!
x@!
xG!
x3!
x&!
x%!
x=!
x<!
x/!
x'!
xW!
xV!
x\!
xX!
xc!
xT!
xj!
xb!
x[!
xi!
xg!
xa!
xU!
xY!
xd!
xZ!
xS!
x`!
x]!
xl!
xk!
xh!
xe!
x_!
xf!
x^!
1!
xB
x@
xA
x?
x<
x=
x;
x>
#150
0!
#200
0)!
0.!
0-!
0,!
1+!
0*!
1(!
xR!
xQ!
xP!
xO!
xN!
0&!
xM!
0%!
0'!
xL!
xI!
xK!
xJ!
1!
x""
x}!
x!"
x~!
x7
x8
x:
x9
#250
0!
#300
00!
04!
05!
07!
12!
01!
0R!
06!
0Q!
0P!
03!
1O!
0N!
0M!
0/!
1L!
0I!
0K!
0J!
1!
#350
0!
#400
18!
0>!
1;!
1:!
0?!
19!
0@!
1=!
1<!
0W!
1V!
0X!
0T!
0[!
1U!
0Y!
0Z!
0S!
1!
#450
0!
#500
1C!
1B!
0H!
0D!
0F!
1A!
0E!
0G!
1\!
0c!
1b!
0a!
0d!
0`!
1]!
1_!
0^!
1!
x3
x4
x5
x6
#550
0!
#600
0j!
0i!
0g!
0l!
0k!
1h!
1e!
1f!
1!
1""
1}!
0B
0!"
0@
0A
0?
1~!
1<
17
03
18
0=
04
1:
05
1;
16
1>
09
#650
0!
#700
1!
#750
0!
#800
1!
#850
0!
#900
1!
#950
0!
#1000
1!
#1050
0!
#1100
1!
#1150
0!
#1200
1!
#1250
0!
#1300
1!
#1350
0!
#1400
1!
#1450
0!
#1500
1!
#1550
0!
#1600
1!
#1650
0!
#1700
1!
#1750
0!
#1800
1!
#1850
0!
#1900
1!
#1950
0!
#2000
1!
#2050
0!
#2100
1!
#2150
0!
#2200
1!
#2250
0!
#2300
1!
#2350
0!
#2400
1!
#2450
0!
#2500
1!
#2550
0!
#2600
1!
#2650
0!
#2700
1!
#2750
0!
#2800
1!
#2850
0!
#2900
1!
#2950
0!
#3000
1!
#3050
0!
#3100
1!
#3150
0!
#3200
1!
#3250
0!
#3300
1!
#3350
0!
#3400
1!
#3450
0!
#3500
1!
#3550
0!
#3600
1!
#3650
0!
#3700
1!
#3750
0!
#3800
1!
#3850
0!
#3900
1!
#3950
0!
#4000
1!
#4050
0!
#4100
1!
#4150
0!
#4200
1!
#4250
0!
#4300
1!
#4350
0!
#4400
1!
#4450
0!
#4500
1!
#4550
0!
#4600
1!
#4650
0!
#4700
1!
#4750
0!
#4800
1!
#4850
0!
#4900
1!
#4950
0!
#5000
1!
#5050
0!
#5100
1!
#5150
0!
#5200
1!
#5250
0!
#5300
1!
#5350
0!
#5400
1!
#5450
0!
#5500
1!
#5550
0!
#5600
1!
#5650
0!
#5700
1!
#5750
0!
#5800
1!
#5850
0!
#5900
1!
#5950
0!
#6000
1!
#6050
0!
#6100
1!
#6150
0!
#6200
1!
#6250
0!
#6300
1!
#6350
0!
#6400
1!
#6450
0!
#6500
1!
#6550
0!
#6600
1!
#6650
0!
#6700
1!
#6750
0!
#6800
1!
#6850
0!
#6900
1!
#6950
0!
#7000
1!
#7050
0!
#7100
1!
#7150
0!
#7200
1!
#7250
0!
#7300
1!
#7350
0!
#7400
1!
#7450
0!
#7500
1!
#7550
0!
#7600
1!
#7650
0!
#7700
1!
#7750
0!
#7800
1!
#7850
0!
#7900
1!
#7950
0!
#8000
1!
#8050
0!
#8100
1!
#8150
0!
#8200
1!
#8250
0!
#8300
1!
#8350
0!
#8400
1!
#8450
0!
#8500
1!
#8550
0!
#8600
1!
#8650
0!
#8700
1!
#8750
0!
#8800
1!
#8850
0!
#8900
1!
#8950
0!
#9000
1!
#9050
0!
#9100
1!
#9150
0!
#9200
1!
#9250
0!
#9300
1!
#9350
0!
#9400
1!
#9450
0!
#9500
1!
#9550
0!
#9600
1!
#9650
0!
#9700
1!
#9750
0!
#9800
1!
#9850
0!
#9900
1!
#9950
0!
#10000
x"
1!
